{
  "name": "xrdesktop extension",
  "description": "Control xrdesktop.",
  "uuid": "xrdesktop-extension@collabora.com",
  "shell-version": ["3.28", "3.30", "3.32", "3.34", "3.36", "3.38", "40", "41", "42", "43"]
}
